<svg width="32" height="32" viewBox="0 0 32 32" fill="none" xmlns="http://www.w3.org/2000/svg">
<path d="M16 7.61467C16.9187 6.54 18.508 5.33334 20.928 5.33334C25.1613 5.33334 28 9.30667 28 13.0067C28 20.7413 18.3707 26.6667 16 26.6667C13.6293 26.6667 4 20.7413 4 13.0067C4 9.30667 6.83867 5.33334 11.072 5.33334C13.492 5.33334 15.0813 6.54 16 7.61467Z" stroke="#A7A7A7" stroke-width="1.5" stroke-linecap="round" stroke-linejoin="round"/>
</svg>
